{
   "T1sl": {
      "left": 0.055,
      "bottom": 0.56,
      "width": 0.15,
      "height": 0.03,
      "min": 10,
      "max": 100,
      "init": 80,
      "text": "",
      "valfmt": "%i",
      "color": "b"
   },
   "T2sl": {
      "left": 0.055,
      "bottom": 0.47,
      "width": 0.15,
      "height": 0.03,
      "min": 10,
      "max": 100,
      "init": 20,
      "text": "",
      "valfmt": "%i",
      "color": "b"
   },
   "length": {
      "left": 0.055,
      "bottom": 0.36,
      "width": 0.15,
      "height": 0.03,
      "min": 10,
      "max": 200,
      "init": 100,
      "text": "",
      "valfmt": "%i",
      "color": "g"
   },
   "dia": {
      "left": 0.055,
      "bottom": 0.27,
      "width": 0.15,
      "height": 0.03,
      "min": 1,
      "max": 50,
      "init": 15,
      "text": "",
      "valfmt": "%i",
      "color": "g"
   }
}
